# Blender v2.90.0 OBJ File: 'Low Poly Table.blend'
# www.blender.org
mtllib Low Poly Table.mtl
o Cube_Cube.001
v -0.803231 1.778533 0.803231
v -1.000000 1.978533 1.000000
v -0.803231 1.778533 -0.803231
v -1.000000 1.978533 -1.000000
v 0.803231 1.778533 0.803231
v 1.000000 1.978533 1.000000
v 0.803231 1.778533 -0.803231
v 1.000000 1.978533 -1.000000
v -0.803231 1.778533 -0.530102
v -0.803231 1.778533 0.530102
v -1.000000 1.978533 0.333333
v -1.000000 1.978533 -0.333333
v 0.803231 1.778533 0.530102
v 0.803231 1.778533 -0.530102
v 1.000000 1.978533 -0.333333
v 1.000000 1.978533 0.333333
v 0.530102 1.778533 -0.803231
v -0.530102 1.778533 -0.803231
v -0.333333 1.978533 -1.000000
v 0.333333 1.978533 -1.000000
v -0.530102 1.778533 0.803231
v 0.530102 1.778533 0.803231
v 0.333333 1.978533 1.000000
v -0.333333 1.978533 1.000000
v -0.333333 1.978533 -0.333333
v 0.333333 1.978533 -0.333333
v -0.333333 1.978533 0.333333
v 0.333333 1.978533 0.333333
v 0.530102 1.778533 -0.530102
v -0.530102 1.778533 -0.530102
v 0.530102 1.778533 0.530102
v -0.530102 1.778533 0.530102
v -1.000000 1.778533 0.333333
v -1.000000 1.778533 1.000000
v -0.333333 1.778533 -1.000000
v -1.000000 1.778533 -1.000000
v 1.000000 1.778533 -0.333333
v 1.000000 1.778533 -1.000000
v 0.333333 1.778533 1.000000
v 1.000000 1.778533 1.000000
v -1.000000 1.778533 -0.333333
v 1.000000 1.778533 0.333333
v -0.333333 1.778533 -0.333333
v -0.333333 1.778533 0.333333
v 0.333333 1.778533 -1.000000
v -0.333333 1.778533 1.000000
v 0.333333 1.778533 -0.333333
v 0.333333 1.778533 0.333333
v -0.803231 0.419650 0.530102
v -0.803231 0.419650 0.803231
v -0.530102 0.419650 -0.803231
v -0.803231 0.419650 -0.803231
v 0.803231 0.419650 -0.530102
v 0.803231 0.419650 -0.803231
v 0.530102 0.419650 0.803231
v 0.803231 0.419650 0.803231
v -0.803231 0.419650 -0.530102
v 0.803231 0.419650 0.530102
v -0.530102 0.419650 -0.530102
v -0.530102 0.419650 0.530102
v 0.530102 0.419650 -0.803231
v -0.530102 0.419650 0.803231
v 0.530102 0.419650 -0.530102
v 0.530102 0.419650 0.530102
vt 0.375000 0.166667
vt 0.625000 0.166667
vt 0.625000 0.250000
vt 0.375000 0.250000
vt 0.375000 0.416667
vt 0.625000 0.416667
vt 0.625000 0.500000
vt 0.375000 0.500000
vt 0.375000 0.666667
vt 0.625000 0.666667
vt 0.625000 0.750000
vt 0.375000 0.750000
vt 0.375000 0.916667
vt 0.625000 0.916667
vt 0.625000 1.000000
vt 0.375000 1.000000
vt 0.350404 0.558737
vt 0.316263 0.558737
vt 0.316263 0.558737
vt 0.350404 0.558737
vt 0.791667 0.666667
vt 0.875000 0.666667
vt 0.875000 0.750000
vt 0.791667 0.750000
vt 0.791667 0.500000
vt 0.875000 0.500000
vt 0.875000 0.583333
vt 0.791667 0.583333
vt 0.350404 0.524596
vt 0.350404 0.524596
vt 0.291667 0.583333
vt 0.375000 0.583333
vt 0.291667 0.666667
vt 0.625000 0.583333
vt 0.375000 0.000000
vt 0.625000 0.000000
vt 0.625000 0.083333
vt 0.375000 0.083333
vt 0.125000 0.583333
vt 0.208333 0.583333
vt 0.208333 0.666667
vt 0.125000 0.666667
vt 0.183737 0.725404
vt 0.149596 0.725404
vt 0.149596 0.725404
vt 0.183737 0.725404
vt 0.208333 0.500000
vt 0.291667 0.500000
vt 0.708333 0.583333
vt 0.708333 0.666667
vt 0.708333 0.500000
vt 0.708333 0.750000
vt 0.149596 0.524596
vt 0.183737 0.524596
vt 0.183737 0.524596
vt 0.149596 0.524596
vt 0.291667 0.750000
vt 0.208333 0.750000
vt 0.625000 0.833333
vt 0.375000 0.833333
vt 0.625000 0.333333
vt 0.375000 0.333333
vt 0.149596 0.691263
vt 0.125000 0.750000
vt 0.125000 0.500000
vt 0.316263 0.725404
vt 0.350404 0.725404
vt 0.149596 0.558737
vt 0.350404 0.691263
vt 0.183737 0.558737
vt 0.183737 0.691263
vt 0.316263 0.524596
vt 0.316263 0.691263
vt 0.316263 0.691263
vt 0.350404 0.691263
vt 0.350404 0.725404
vt 0.316263 0.725404
vt 0.316263 0.524596
vt 0.183737 0.558737
vt 0.149596 0.558737
vt 0.149596 0.691263
vt 0.183737 0.691263
vn -1.0000 0.0000 0.0000
vn 0.0000 0.0000 -1.0000
vn 1.0000 0.0000 0.0000
vn 0.0000 0.0000 1.0000
vn 0.0000 1.0000 0.0000
vn 0.0000 -1.0000 0.0000
usemtl None
s off
f 41/1/1 12/2/1 4/3/1 36/4/1
f 45/5/2 20/6/2 8/7/2 38/8/2
f 42/9/3 16/10/3 6/11/3 40/12/3
f 46/13/4 24/14/4 2/15/4 34/16/4
f 14/17/4 29/18/4 63/19/4 53/20/4
f 27/21/5 11/22/5 2/23/5 24/24/5
f 19/25/5 4/26/5 12/27/5 25/28/5
f 25/28/5 12/27/5 11/22/5 27/21/5
f 7/29/3 14/17/3 53/20/3 54/30/3
f 47/31/6 37/32/6 42/9/6 48/33/6
f 38/8/3 8/7/3 15/34/3 37/32/3
f 37/32/3 15/34/3 16/10/3 42/9/3
f 34/35/1 2/36/1 11/37/1 33/38/1
f 33/38/1 11/37/1 12/2/1 41/1/1
f 41/39/6 43/40/6 44/41/6 33/42/6
f 43/40/6 47/31/6 48/33/6 44/41/6
f 21/43/4 1/44/4 50/45/4 62/46/4
f 35/47/6 45/48/6 47/31/6 43/40/6
f 15/34/5 26/49/5 28/50/5 16/10/5
f 26/49/5 25/28/5 27/21/5 28/50/5
f 8/7/5 20/51/5 26/49/5 15/34/5
f 20/51/5 19/25/5 25/28/5 26/49/5
f 16/10/5 28/50/5 23/52/5 6/11/5
f 28/50/5 27/21/5 24/24/5 23/52/5
f 3/53/2 18/54/2 51/55/2 52/56/2
f 44/41/6 48/33/6 39/57/6 46/58/6
f 40/12/4 6/11/4 23/59/4 39/60/4
f 39/60/4 23/59/4 24/14/4 46/13/4
f 36/4/2 4/3/2 19/61/2 35/62/2
f 35/62/2 19/61/2 20/6/2 45/5/2
f 10/63/6 1/44/6 34/64/6 33/42/6
f 18/54/6 3/53/6 36/65/6 35/47/6
f 14/17/6 7/29/6 38/8/6 37/32/6
f 22/66/6 5/67/6 40/12/6 39/57/6
f 3/53/6 9/68/6 41/39/6 36/65/6
f 5/67/6 13/69/6 42/9/6 40/12/6
f 9/68/6 30/70/6 43/40/6 41/39/6
f 32/71/6 10/63/6 33/42/6 44/41/6
f 7/29/6 17/72/6 45/48/6 38/8/6
f 1/44/6 21/43/6 46/58/6 34/64/6
f 29/18/6 14/17/6 37/32/6 47/31/6
f 13/69/6 31/73/6 48/33/6 42/9/6
f 30/70/6 18/54/6 35/47/6 43/40/6
f 17/72/6 29/18/6 47/31/6 45/48/6
f 21/43/6 32/71/6 44/41/6 46/58/6
f 31/73/6 22/66/6 39/57/6 48/33/6
f 64/74/6 58/75/6 56/76/6 55/77/6
f 61/78/6 54/30/6 53/20/6 63/19/6
f 52/56/6 51/55/6 59/79/6 57/80/6
f 49/81/6 60/82/6 62/46/6 50/45/6
f 5/67/4 22/66/4 55/77/4 56/76/4
f 31/73/2 13/69/2 58/75/2 64/74/2
f 9/68/1 3/53/1 52/56/1 57/80/1
f 18/54/3 30/70/3 59/79/3 51/55/3
f 13/69/3 5/67/3 56/76/3 58/75/3
f 29/18/1 17/72/1 61/78/1 63/19/1
f 30/70/4 9/68/4 57/80/4 59/79/4
f 32/71/3 21/43/3 62/46/3 60/82/3
f 10/63/2 32/71/2 60/82/2 49/81/2
f 1/44/1 10/63/1 49/81/1 50/45/1
f 22/66/1 31/73/1 64/74/1 55/77/1
f 17/72/2 7/29/2 54/30/2 61/78/2
